{
    "code": "200",
    "data": {
        "pagination": {
            "page": 3,
            "size": 20,
            "totalPage": 7,
            "total": 125
        },
        "result": [
            {
                "topicId": 20160817,
                "title": "妈咪宝贝の安心一夏",
                "subtitle": "230元母婴券免费领",
                "priceInfo": 29,
                "scenePicUrl": "http://yanxuan.nosdn.127.net/71d4eeb4deba519f23af8373befbacca.jpg",
                "itemPicUrl": "http://yanxuan.nosdn.127.net/71d4eeb4deba519f23af8373befbacca.jpg",
                "topicTemplateId": 0,
                "topicTagId": 0,
                "commentSwitch": false
            },
            {
                "topicId": 20160823,
                "title": "从洁面皂开始，改变洗脸方式",
                "subtitle": "5秒测出洁面方式",
                "priceInfo": 49,
                "scenePicUrl": "http://yanxuan.nosdn.127.net/f25bf645d4fcdcff700f7a73ed09724d.jpg",
                "itemPicUrl": "http://yanxuan.nosdn.127.net/f25bf645d4fcdcff700f7a73ed09724d.jpg",
                "topicTemplateId": 0,
                "topicTagId": 0,
                "commentSwitch": false
            },
            {
                "topicId": 20160822,
                "title": "收纳，是方寸间的舞蹈",
                "subtitle": "一劳永逸的衣物收纳法则",
                "priceInfo": 35,
                "scenePicUrl": "http://yanxuan.nosdn.127.net/d06f4818a3747917b938aec3d3dda36b.jpg",
                "itemPicUrl": "http://yanxuan.nosdn.127.net/d06f4818a3747917b938aec3d3dda36b.jpg",
                "topicTemplateId": 0,
                "topicTagId": 0,
                "commentSwitch": false
            },
            {
                "topicId": 20160816,
                "title": "好“妆”备打造空气妆容",
                "subtitle": "精致自然，贴合细腻",
                "priceInfo": 29,
                "scenePicUrl": "http://yanxuan.nosdn.127.net/69b32594a5d5633c0ce5899884e68866.jpg",
                "itemPicUrl": "http://yanxuan.nosdn.127.net/69b32594a5d5633c0ce5899884e68866.jpg",
                "topicTemplateId": 0,
                "topicTagId": 0,
                "commentSwitch": false
            },
            {
                "topicId": 20160815,
                "title": "厨房小，挡不住你的食神心",
                "subtitle": "主厨必备好物",
                "priceInfo": 13.99,
                "scenePicUrl": "http://yanxuan.nosdn.127.net/8be5fca24da849990f980fc490251048.jpg",
                "itemPicUrl": "http://yanxuan.nosdn.127.net/8be5fca24da849990f980fc490251048.jpg",
                "topicTemplateId": 0,
                "topicTagId": 0,
                "commentSwitch": false
            },
            {
                "topicId": 20160811,
                "title": "陪你从诗词歌赋到柴米油盐",
                "subtitle": "诗酒花茶的文艺日常",
                "priceInfo": 25,
                "scenePicUrl": "http://yanxuan.nosdn.127.net/b843809f2be0b4526e6ad448c3464d2a.jpg",
                "itemPicUrl": "http://yanxuan.nosdn.127.net/b843809f2be0b4526e6ad448c3464d2a.jpg",
                "topicTemplateId": 0,
                "topicTagId": 0,
                "commentSwitch": false
            },
            {
                "topicId": 20160809,
                "title": "换条毛巾，换新生活",
                "subtitle": "来自内野制造商",
                "priceInfo": 29,
                "scenePicUrl": "http://yanxuan.nosdn.127.net/316131c314a2f3545b0c6c9bf0a41f8e.jpg",
                "itemPicUrl": "http://yanxuan.nosdn.127.net/316131c314a2f3545b0c6c9bf0a41f8e.jpg",
                "topicTemplateId": 0,
                "topicTagId": 0,
                "commentSwitch": false
            },
            {
                "topicId": 20160808,
                "title": "在家中打造治愈系“低空间”",
                "subtitle": "日式设计家具系列",
                "priceInfo": 39,
                "scenePicUrl": "http://yanxuan.nosdn.127.net/c206e7b280106543376e8be6e86ff2b4.jpg",
                "itemPicUrl": "http://yanxuan.nosdn.127.net/c206e7b280106543376e8be6e86ff2b4.jpg",
                "topicTemplateId": 0,
                "topicTagId": 0,
                "commentSwitch": false
            },
            {
                "topicId": 20160805,
                "title": "8月篇 本月必买的好物",
                "subtitle": "八月好物清单",
                "priceInfo": 9.9,
                "scenePicUrl": "http://yanxuan.nosdn.127.net/80653f74d77be313edbc956d6afecff7.jpg",
                "itemPicUrl": "http://yanxuan.nosdn.127.net/80653f74d77be313edbc956d6afecff7.jpg",
                "topicTemplateId": 0,
                "topicTagId": 0,
                "commentSwitch": false
            },
            {
                "topicId": 20160802,
                "title": "独属于中国爸爸的节日",
                "subtitle": "爸爸最喜欢的礼物",
                "priceInfo": 59,
                "scenePicUrl": "http://yanxuan.nosdn.127.net/e2e44b3982786b3e389e41a766895321.jpg",
                "itemPicUrl": "http://yanxuan.nosdn.127.net/e2e44b3982786b3e389e41a766895321.jpg",
                "topicTemplateId": 0,
                "topicTagId": 0,
                "commentSwitch": false
            },
            {
                "topicId": 20160617,
                "title": "诗与远方，都在脚下",
                "subtitle": "进口羊毛地毯系列",
                "priceInfo": 969,
                "scenePicUrl": "http://yanxuan.nosdn.127.net/38d007e82cecb7c147065386c0532b75.jpg",
                "itemPicUrl": "http://yanxuan.nosdn.127.net/38d007e82cecb7c147065386c0532b75.jpg",
                "topicTemplateId": 0,
                "topicTagId": 0,
                "commentSwitch": false
            },
            {
                "topicId": 20160729,
                "title": "不只是礼物，更是心意",
                "subtitle": "网易女员工最想要的七夕礼物调查",
                "priceInfo": 16,
                "scenePicUrl": "http://yanxuan.nosdn.127.net/3a58021480046f7dffa9930e99d96d9e.jpg",
                "itemPicUrl": "http://yanxuan.nosdn.127.net/3a58021480046f7dffa9930e99d96d9e.jpg",
                "topicTemplateId": 0,
                "topicTagId": 0,
                "commentSwitch": false
            },
            {
                "topicId": 16080616,
                "title": "让孩子穿上自然草木",
                "subtitle": "恋恋草木染",
                "priceInfo": 59,
                "scenePicUrl": "http://yanxuan.nosdn.127.net/165be9287a4d6056549a72e8de93459f.jpg",
                "itemPicUrl": "http://yanxuan.nosdn.127.net/165be9287a4d6056549a72e8de93459f.jpg",
                "topicTemplateId": 1,
                "topicTagId": 0,
                "commentSwitch": false
            },
            {
                "topicId": 20160730,
                "title": "被霸道团宠统治的夏天",
                "subtitle": "湖南卫视独家授权",
                "priceInfo": 18,
                "scenePicUrl": "http://yanxuan.nosdn.127.net/90ce38cfec0a564ff5611d40ca44c1b1.jpg",
                "itemPicUrl": "http://yanxuan.nosdn.127.net/90ce38cfec0a564ff5611d40ca44c1b1.jpg",
                "topicTemplateId": 0,
                "topicTagId": 0,
                "commentSwitch": false
            },
            {
                "topicId": 20160728,
                "title": "职场人の六大自我修养",
                "subtitle": "超实用文具合集",
                "priceInfo": 9.9,
                "scenePicUrl": "http://yanxuan.nosdn.127.net/1a47f873401c935889e743543b85fc48.jpg",
                "itemPicUrl": "http://yanxuan.nosdn.127.net/1a47f873401c935889e743543b85fc48.jpg",
                "topicTemplateId": 0,
                "topicTagId": 0,
                "commentSwitch": false
            },
            {
                "topicId": 20160727,
                "title": "一家四代人的降暑神器",
                "subtitle": "给你清凉一夏",
                "priceInfo": 15,
                "scenePicUrl": "http://yanxuan.nosdn.127.net/482c043a45f1bf307e197c8d90513a02.jpg",
                "itemPicUrl": "http://yanxuan.nosdn.127.net/482c043a45f1bf307e197c8d90513a02.jpg",
                "topicTemplateId": 0,
                "topicTagId": 0,
                "commentSwitch": false
            },
            {
                "topicId": 20160722,
                "title": "换双鞋，开启生活另一页",
                "subtitle": "生活从下班开始",
                "priceInfo": 19.9,
                "scenePicUrl": "http://yanxuan.nosdn.127.net/baeac588d92d138d592897d26fc52004.jpg",
                "itemPicUrl": "http://yanxuan.nosdn.127.net/baeac588d92d138d592897d26fc52004.jpg",
                "topicTemplateId": 0,
                "topicTagId": 0,
                "commentSwitch": false
            },
            {
                "topicId": 20160719,
                "title": "给你的睡眠补补水",
                "subtitle": "淡墨冰丝渐变四件套",
                "priceInfo": 959,
                "scenePicUrl": "http://yanxuan.nosdn.127.net/d033269da672a8e7ed1338f6862bcd9e.jpg",
                "itemPicUrl": "http://yanxuan.nosdn.127.net/d033269da672a8e7ed1338f6862bcd9e.jpg",
                "topicTemplateId": 0,
                "topicTagId": 0,
                "commentSwitch": false
            },
            {
                "topicId": 20160718,
                "title": "百年贡茶 赏味大红袍",
                "subtitle": "茶香馥郁 岩骨花香",
                "priceInfo": 16,
                "scenePicUrl": "http://yanxuan.nosdn.127.net/d50e404357ade71f9bc3c965382e4313.jpg",
                "itemPicUrl": "http://yanxuan.nosdn.127.net/d50e404357ade71f9bc3c965382e4313.jpg",
                "topicTemplateId": 0,
                "topicTagId": 0,
                "commentSwitch": false
            },
            {
                "topicId": 20160720,
                "title": "璀璨星河里你的味道",
                "subtitle": "星座专属零食精选",
                "priceInfo": 16,
                "scenePicUrl": "http://yanxuan.nosdn.127.net/77a4170a4c2dadc775a6cd0396e9be7d.jpg",
                "itemPicUrl": "http://yanxuan.nosdn.127.net/77a4170a4c2dadc775a6cd0396e9be7d.jpg",
                "topicTemplateId": 0,
                "topicTagId": 0,
                "commentSwitch": false
            }
        ]
    }
}