{
    "code": "200",
    "data": {
        "pagination": {
            "page": 4,
            "size": 20,
            "totalPage": 7,
            "total": 125
        },
        "result": [
            {
                "topicId": 20160715,
                "title": "宅家补剧の一天",
                "subtitle": "宅夏必备好物特辑",
                "priceInfo": 13,
                "scenePicUrl": "http://yanxuan.nosdn.127.net/a7d34e8f9277fb224106a721c932c112.jpg",
                "itemPicUrl": "http://yanxuan.nosdn.127.net/a7d34e8f9277fb224106a721c932c112.jpg",
                "topicTemplateId": 0,
                "topicTagId": 0,
                "commentSwitch": false
            },
            {
                "topicId": 20160711,
                "title": "一把雨伞成就一位绅士",
                "subtitle": "来自WPC制造商",
                "priceInfo": 99,
                "scenePicUrl": "http://yanxuan.nosdn.127.net/9c7aa0f24bc51293f7d79ff08f6ac1c6.jpg",
                "itemPicUrl": "http://yanxuan.nosdn.127.net/9c7aa0f24bc51293f7d79ff08f6ac1c6.jpg",
                "topicTemplateId": 0,
                "topicTagId": 0,
                "commentSwitch": false
            },
            {
                "topicId": 20160707,
                "title": "冷饮の正确打开方式",
                "subtitle": "来自膳魔师制造商",
                "priceInfo": 45,
                "scenePicUrl": "http://yanxuan.nosdn.127.net/6f4cafd2379715cbabb0cbe5c4c76b95.jpg",
                "itemPicUrl": "http://yanxuan.nosdn.127.net/6f4cafd2379715cbabb0cbe5c4c76b95.jpg",
                "topicTemplateId": 0,
                "topicTagId": 0,
                "commentSwitch": false
            },
            {
                "topicId": 20160705,
                "title": "味与韵，杯盏碗碟间",
                "subtitle": "选自皇家道尔顿制造商",
                "priceInfo": 79,
                "scenePicUrl": "http://yanxuan.nosdn.127.net/73b90dbb6eaec9c145fa15f868f24804.jpg",
                "itemPicUrl": "http://yanxuan.nosdn.127.net/73b90dbb6eaec9c145fa15f868f24804.jpg",
                "topicTemplateId": 0,
                "topicTagId": 0,
                "commentSwitch": false
            },
            {
                "topicId": 20160702,
                "title": "升级品质厨房必备清单",
                "subtitle": "选自双立人制造商",
                "priceInfo": 98,
                "scenePicUrl": "http://yanxuan.nosdn.127.net/0a0cdb3e9ef0c9fbaa5826fd5ebda6ac.jpg",
                "itemPicUrl": "http://yanxuan.nosdn.127.net/0a0cdb3e9ef0c9fbaa5826fd5ebda6ac.jpg",
                "topicTemplateId": 0,
                "topicTagId": 0,
                "commentSwitch": false
            },
            {
                "topicId": 20160630,
                "title": "7月篇 本月必买的好物",
                "subtitle": "夏日必备清单",
                "priceInfo": 15,
                "scenePicUrl": "http://yanxuan.nosdn.127.net/c5d16fb0b1f8e0630fb36b0b9f6194f1.jpg",
                "itemPicUrl": "http://yanxuan.nosdn.127.net/c5d16fb0b1f8e0630fb36b0b9f6194f1.jpg",
                "topicTemplateId": 0,
                "topicTagId": 0,
                "commentSwitch": false
            },
            {
                "topicId": 20160628,
                "title": "環球寻芳之旅",
                "subtitle": "香氛带来的精神抚慰",
                "priceInfo": 59,
                "scenePicUrl": "http://yanxuan.nosdn.127.net/30687929127b7de240ce14c5bd5ba477.jpg",
                "itemPicUrl": "http://yanxuan.nosdn.127.net/30687929127b7de240ce14c5bd5ba477.jpg",
                "topicTemplateId": 0,
                "topicTagId": 0,
                "commentSwitch": false
            },
            {
                "topicId": 20160627,
                "title": "戴安娜王妃最爱的梳子",
                "subtitle": "皇室体验，从头开始",
                "priceInfo": 59,
                "scenePicUrl": "http://yanxuan.nosdn.127.net/a9c91f506eefd4001451c80da7b0475d.jpg",
                "itemPicUrl": "http://yanxuan.nosdn.127.net/a9c91f506eefd4001451c80da7b0475d.jpg",
                "topicTemplateId": 0,
                "topicTagId": 0,
                "commentSwitch": false
            },
            {
                "topicId": 20160625,
                "title": "一汪清冽，凉意入喉",
                "subtitle": "冷泡茶畅饮随心",
                "priceInfo": 20,
                "scenePicUrl": "http://yanxuan.nosdn.127.net/4a0941b9321e4950af11f90eba270fb0.jpg",
                "itemPicUrl": "http://yanxuan.nosdn.127.net/4a0941b9321e4950af11f90eba270fb0.jpg",
                "topicTemplateId": 0,
                "topicTagId": 0,
                "commentSwitch": false
            },
            {
                "topicId": 20160624,
                "title": "开启一段文艺的旅行",
                "subtitle": "文青出行必备单品",
                "priceInfo": 29,
                "scenePicUrl": "http://yanxuan.nosdn.127.net/e18334bceee2d2c240091ee5208dd824.jpg",
                "itemPicUrl": "http://yanxuan.nosdn.127.net/e18334bceee2d2c240091ee5208dd824.jpg",
                "topicTemplateId": 0,
                "topicTagId": 0,
                "commentSwitch": false
            },
            {
                "topicId": 20160616,
                "title": "孕育生命的你更值得被爱",
                "subtitle": "犬印、Harvest Hills制造商",
                "priceInfo": 19.9,
                "scenePicUrl": "http://yanxuan.nosdn.127.net/24f3f84c61cd4630e32a89db3f59f7a9.jpg",
                "itemPicUrl": "http://yanxuan.nosdn.127.net/24f3f84c61cd4630e32a89db3f59f7a9.jpg",
                "topicTemplateId": 0,
                "topicTagId": 0,
                "commentSwitch": false
            },
            {
                "topicId": 20160614,
                "title": "纯天然洗护用品",
                "subtitle": "洗去尘汗与疲惫  最高立减20元",
                "priceInfo": 9.9,
                "scenePicUrl": "http://yanxuan.nosdn.127.net/bb26c0f1b65842c2430804af48bffdda.jpg",
                "itemPicUrl": "http://yanxuan.nosdn.127.net/bb26c0f1b65842c2430804af48bffdda.jpg",
                "topicTemplateId": 0,
                "topicTagId": 0,
                "commentSwitch": false
            },
            {
                "topicId": 20160613,
                "title": "原木器物，温润质朴",
                "subtitle": "独一无二的纹路，是它的名片",
                "priceInfo": 15,
                "scenePicUrl": "http://yanxuan.nosdn.127.net/9febb404bb1818b9685fc34c06151c1c.jpg",
                "itemPicUrl": "http://yanxuan.nosdn.127.net/9febb404bb1818b9685fc34c06151c1c.jpg",
                "topicTemplateId": 0,
                "topicTagId": 0,
                "commentSwitch": false
            },
            {
                "topicId": 20160612,
                "title": "给孩子减负护脊的专用书包",
                "subtitle": "匠心手工打造，为童年护航",
                "priceInfo": 699,
                "scenePicUrl": "http://yanxuan.nosdn.127.net/60e0f6c538effbd20b883eff9a6dcaf1.jpg",
                "itemPicUrl": "http://yanxuan.nosdn.127.net/60e0f6c538effbd20b883eff9a6dcaf1.jpg",
                "topicTemplateId": 0,
                "topicTagId": 0,
                "commentSwitch": false
            },
            {
                "topicId": 20160609,
                "title": "面子要舒服，里子也要",
                "subtitle": "亲肤好物让肌肤透气舒展",
                "priceInfo": 18,
                "scenePicUrl": "http://yanxuan.nosdn.127.net/3977b8952d6019cd6b6ffebe8e9c0a5f.jpg",
                "itemPicUrl": "http://yanxuan.nosdn.127.net/3977b8952d6019cd6b6ffebe8e9c0a5f.jpg",
                "topicTemplateId": 0,
                "topicTagId": 0,
                "commentSwitch": false
            },
            {
                "topicId": 20160608,
                "title": "皮具 | 有选择才有风格",
                "subtitle": "男人要洒脱，更要精致",
                "priceInfo": 59,
                "scenePicUrl": "http://yanxuan.nosdn.127.net/56e87c0b705a2290d73f1764398ffb07.jpg",
                "itemPicUrl": "http://yanxuan.nosdn.127.net/56e87c0b705a2290d73f1764398ffb07.jpg",
                "topicTemplateId": 0,
                "topicTagId": 0,
                "commentSwitch": false
            },
            {
                "topicId": 20160607,
                "title": "适合孩子吃的零食",
                "subtitle": "严选研究所vol.1",
                "priceInfo": 11,
                "scenePicUrl": "http://yanxuan.nosdn.127.net/79d2fe624b7354f168e73d828f772a56.jpg",
                "itemPicUrl": "http://yanxuan.nosdn.127.net/79d2fe624b7354f168e73d828f772a56.jpg",
                "topicTemplateId": 0,
                "topicTagId": 0,
                "commentSwitch": false
            },
            {
                "topicId": 20160601,
                "title": "6月篇 本月必买的好物",
                "subtitle": "清凉一夏",
                "priceInfo": 14.9,
                "scenePicUrl": "http://yanxuan.nosdn.127.net/f67c440d837ba5b56d464890a43cc81c.jpg",
                "itemPicUrl": "http://yanxuan.nosdn.127.net/f67c440d837ba5b56d464890a43cc81c.jpg",
                "topicTemplateId": 0,
                "topicTagId": 0,
                "commentSwitch": false
            },
            {
                "topicId": 20160527,
                "title": "爱喝水，皮肤好好",
                "subtitle": "严选保温杯系列",
                "priceInfo": 45,
                "scenePicUrl": "http://yanxuan.nosdn.127.net/c7be39dfac82780ee5316f0e2bc151c3.jpg",
                "itemPicUrl": "http://yanxuan.nosdn.127.net/c7be39dfac82780ee5316f0e2bc151c3.jpg",
                "topicTemplateId": 0,
                "topicTagId": 0,
                "commentSwitch": false
            },
            {
                "topicId": 20160526,
                "title": "一场大海捞鲜之旅",
                "subtitle": "来自深海的馈赠",
                "priceInfo": 15,
                "scenePicUrl": "http://yanxuan.nosdn.127.net/69723115b76763dc232ded23397df47d.jpg",
                "itemPicUrl": "http://yanxuan.nosdn.127.net/69723115b76763dc232ded23397df47d.jpg",
                "topicTemplateId": 0,
                "topicTagId": 0,
                "commentSwitch": false
            }
        ]
    }
}