{
    "code": "200",
    "data": {
        "pagination": {
            "page": 5,
            "size": 20,
            "totalPage": 7,
            "total": 125
        },
        "result": [
            {
                "topicId": 20160525,
                "title": "小王子，我们的故事",
                "subtitle": "睡在森林里的夏天",
                "priceInfo": 19.9,
                "scenePicUrl": "http://yanxuan.nosdn.127.net/e2fcb41563b079b60491880bafd20f0c.jpg",
                "itemPicUrl": "http://yanxuan.nosdn.127.net/e2fcb41563b079b60491880bafd20f0c.jpg",
                "topicTemplateId": 0,
                "topicTagId": 0,
                "commentSwitch": false
            },
            {
                "topicId": 20160520,
                "title": "夏天，你的胃会撒娇",
                "subtitle": "一碗暖心的香菇打卤",
                "priceInfo": 24.9,
                "scenePicUrl": "http://yanxuan.nosdn.127.net/c18ea9820d770b3243d8c0e4c1dcbdf8.jpg",
                "itemPicUrl": "http://yanxuan.nosdn.127.net/c18ea9820d770b3243d8c0e4c1dcbdf8.jpg",
                "topicTemplateId": 0,
                "topicTagId": 0,
                "commentSwitch": false
            },
            {
                "topicId": 20160516,
                "title": "偷懒小心机",
                "subtitle": "专为爱厨房的懒人设计",
                "priceInfo": 13.99,
                "scenePicUrl": "http://yanxuan.nosdn.127.net/18c8f559e11f9b49bb9771a5e69640c7.jpg",
                "itemPicUrl": "http://yanxuan.nosdn.127.net/18c8f559e11f9b49bb9771a5e69640c7.jpg",
                "topicTemplateId": 0,
                "topicTagId": 0,
                "commentSwitch": false
            },
            {
                "topicId": 20160517,
                "title": "风来过，留存蔺草香",
                "subtitle": "每根蔺草都精心挑选，独具匠心",
                "priceInfo": 39,
                "scenePicUrl": "http://yanxuan.nosdn.127.net/b54da01e2ae74d55471671c7830f2279.jpg",
                "itemPicUrl": "http://yanxuan.nosdn.127.net/b54da01e2ae74d55471671c7830f2279.jpg",
                "topicTemplateId": 0,
                "topicTagId": 0,
                "commentSwitch": false
            },
            {
                "topicId": 20160518,
                "title": "入夏卧室换季必买",
                "subtitle": "睡在森林里的夏天",
                "priceInfo": 39,
                "scenePicUrl": "http://yanxuan.nosdn.127.net/af8459590ab31a464f515719607ac02a.jpg",
                "itemPicUrl": "http://yanxuan.nosdn.127.net/af8459590ab31a464f515719607ac02a.jpg",
                "topicTemplateId": 0,
                "topicTagId": 0,
                "commentSwitch": false
            },
            {
                "topicId": 20160511,
                "title": "夏被里的欢乐颂",
                "subtitle": "世界小的像22楼的布景，我们相遇在这里",
                "priceInfo": 159,
                "scenePicUrl": "http://yanxuan.nosdn.127.net/00b3a11a98a7c1cbb2416c64b3cbb0e4.jpg",
                "itemPicUrl": "http://yanxuan.nosdn.127.net/00b3a11a98a7c1cbb2416c64b3cbb0e4.jpg",
                "topicTemplateId": 0,
                "topicTagId": 0,
                "commentSwitch": false
            },
            {
                "topicId": 20160510,
                "title": "爱上办公室的五种方法",
                "subtitle": "治愈你的周一综合症，让上班不再难",
                "priceInfo": 15,
                "scenePicUrl": "http://yanxuan.nosdn.127.net/07acbca1058b7728d7b634d87a728ce5.jpg",
                "itemPicUrl": "http://yanxuan.nosdn.127.net/07acbca1058b7728d7b634d87a728ce5.jpg",
                "topicTemplateId": 0,
                "topicTagId": 0,
                "commentSwitch": false
            },
            {
                "topicId": 20160503,
                "title": "你确定洗对澡了吗？",
                "subtitle": "天然洗浴指南",
                "priceInfo": 9.9,
                "scenePicUrl": "http://yanxuan.nosdn.127.net/516ef4b32f64ef546fdef22a08fee69c.jpg",
                "itemPicUrl": "http://yanxuan.nosdn.127.net/516ef4b32f64ef546fdef22a08fee69c.jpg",
                "topicTemplateId": 0,
                "topicTagId": 0,
                "commentSwitch": false
            },
            {
                "topicId": 20160502,
                "title": "5月篇 本月必买的好物",
                "subtitle": "正是暮春好时光",
                "priceInfo": 9.9,
                "scenePicUrl": "http://yanxuan.nosdn.127.net/6e62eecc31fafdad4f17b8161184b688.jpg",
                "itemPicUrl": "http://yanxuan.nosdn.127.net/6e62eecc31fafdad4f17b8161184b688.jpg",
                "topicTemplateId": 0,
                "topicTagId": 0,
                "commentSwitch": false
            },
            {
                "topicId": 20160428,
                "title": "食肉的人，更适合远方",
                "subtitle": "内蒙古风干牛肉",
                "priceInfo": 86,
                "scenePicUrl": "http://yanxuan.nosdn.127.net/f762670ebd33eb2cdb7ccaf38abfd89e.jpg",
                "itemPicUrl": "http://yanxuan.nosdn.127.net/f762670ebd33eb2cdb7ccaf38abfd89e.jpg",
                "topicTemplateId": 0,
                "topicTagId": 0,
                "commentSwitch": false
            },
            {
                "topicId": 20160426,
                "title": "柔软，让肌肤来证明",
                "subtitle": "GOTS认证制造商直供针织棉系列",
                "priceInfo": 29,
                "scenePicUrl": "http://yanxuan.nosdn.127.net/a604a1ed669830df8b2346090718e963.jpg",
                "itemPicUrl": "http://yanxuan.nosdn.127.net/a604a1ed669830df8b2346090718e963.jpg",
                "topicTemplateId": 0,
                "topicTagId": 0,
                "commentSwitch": false
            },
            {
                "topicId": 20160425,
                "title": "吐鲁番九月的味道",
                "subtitle": "限时立减10元",
                "priceInfo": 25,
                "scenePicUrl": "http://yanxuan.nosdn.127.net/4d3bdd56fc64d6c19aa17c9f0d22692e.jpg",
                "itemPicUrl": "http://yanxuan.nosdn.127.net/4d3bdd56fc64d6c19aa17c9f0d22692e.jpg",
                "topicTemplateId": 0,
                "topicTagId": 0,
                "commentSwitch": false
            },
            {
                "topicId": 20160427,
                "title": "阿迪达斯制造商出品",
                "subtitle": "一双棉袜的理想主义",
                "priceInfo": 29,
                "scenePicUrl": "http://yanxuan.nosdn.127.net/48a6b7da3cf93a620073a91a31b5a7fa.jpg",
                "itemPicUrl": "http://yanxuan.nosdn.127.net/48a6b7da3cf93a620073a91a31b5a7fa.jpg",
                "topicTemplateId": 0,
                "topicTagId": 0,
                "commentSwitch": false
            },
            {
                "topicId": 20160421,
                "title": "独居必买好物清单",
                "subtitle": "这是你一个人住的第几年？",
                "priceInfo": 15,
                "scenePicUrl": "http://yanxuan.nosdn.127.net/42b280e93e7820e39080d6d0553a7911.jpg",
                "itemPicUrl": "http://yanxuan.nosdn.127.net/42b280e93e7820e39080d6d0553a7911.jpg",
                "topicTemplateId": 0,
                "topicTagId": 0,
                "commentSwitch": false
            },
            {
                "topicId": 20160414,
                "title": "MUJI制造商出品",
                "subtitle": "天然材料，舒适生活",
                "priceInfo": 29,
                "scenePicUrl": "http://yanxuan.nosdn.127.net/64324b13cbe561463a3994d82ad0a474.jpg",
                "itemPicUrl": "http://yanxuan.nosdn.127.net/64324b13cbe561463a3994d82ad0a474.jpg",
                "topicTemplateId": 0,
                "topicTagId": 0,
                "commentSwitch": false
            },
            {
                "topicId": 20160415,
                "title": "春夏变美就靠它",
                "subtitle": "棉麻系列必备围巾单品",
                "priceInfo": 39,
                "scenePicUrl": "http://yanxuan.nosdn.127.net/ec0acd2dd8598c35f116380440c84c24.jpg",
                "itemPicUrl": "http://yanxuan.nosdn.127.net/ec0acd2dd8598c35f116380440c84c24.jpg",
                "topicTemplateId": 0,
                "topicTagId": 0,
                "commentSwitch": false
            },
            {
                "topicId": 20160528,
                "title": "日式玻璃器皿系列",
                "subtitle": "防尘防潮耐高温，高通透",
                "priceInfo": 25,
                "scenePicUrl": "http://yanxuan.nosdn.127.net/8d57468d69ce0c734196e6e9e99df46a.jpg",
                "itemPicUrl": "http://yanxuan.nosdn.127.net/8d57468d69ce0c734196e6e9e99df46a.jpg",
                "topicTemplateId": 0,
                "topicTagId": 0,
                "commentSwitch": false
            },
            {
                "topicId": 20160409,
                "title": "偷得浮生品龙井",
                "subtitle": "错过这一月，又要等一年",
                "priceInfo": 30,
                "scenePicUrl": "http://yanxuan.nosdn.127.net/7fa407a8a577ebf96de50343d56a718a.jpg",
                "itemPicUrl": "http://yanxuan.nosdn.127.net/7fa407a8a577ebf96de50343d56a718a.jpg",
                "topicTemplateId": 0,
                "topicTagId": 0,
                "commentSwitch": false
            },
            {
                "topicId": 20160411,
                "title": "优质毛巾挑选指南",
                "subtitle": "来自内野制造商",
                "priceInfo": 49,
                "scenePicUrl": "http://yanxuan.nosdn.127.net/0aa00ea08be3d1f54ea9a35523640d4c.jpg",
                "itemPicUrl": "http://yanxuan.nosdn.127.net/0aa00ea08be3d1f54ea9a35523640d4c.jpg",
                "topicTemplateId": 0,
                "topicTagId": 0,
                "commentSwitch": false
            },
            {
                "topicId": 20160406,
                "title": "旅行必备的单品",
                "subtitle": "来自MUJI/新秀丽等制造商",
                "priceInfo": 29,
                "scenePicUrl": "http://yanxuan.nosdn.127.net/aae9f99534797d5e189f22bf23e6e847.jpg",
                "itemPicUrl": "http://yanxuan.nosdn.127.net/aae9f99534797d5e189f22bf23e6e847.jpg",
                "topicTemplateId": 0,
                "topicTagId": 0,
                "commentSwitch": false
            }
        ]
    }
}