{
    "code": "200",
    "data": {
        "pagination": {
            "page": 6,
            "size": 20,
            "totalPage": 7,
            "total": 125
        },
        "result": [
            {
                "topicId": 20160401,
                "title": "真材实料，匠心之作",
                "subtitle": "出自德国知名品牌代工厂",
                "priceInfo": 166,
                "scenePicUrl": "http://yanxuan.nosdn.127.net/564749eaddaced665d0d79af7690c1be.jpg",
                "itemPicUrl": "http://yanxuan.nosdn.127.net/564749eaddaced665d0d79af7690c1be.jpg",
                "topicTemplateId": 0,
                "topicTagId": 0,
                "commentSwitch": false
            },
            {
                "topicId": 20160331,
                "title": "4月篇 本月必买的好物",
                "subtitle": "莺飞草长，花期纷至",
                "priceInfo": 14.9,
                "scenePicUrl": "http://yanxuan.nosdn.127.net/239db5b3596de2e2d6a1d7eed7958712.jpg",
                "itemPicUrl": "http://yanxuan.nosdn.127.net/239db5b3596de2e2d6a1d7eed7958712.jpg",
                "topicTemplateId": 0,
                "topicTagId": 0,
                "commentSwitch": false
            },
            {
                "topicId": 20160329,
                "title": "想变美也不要吃「苦」呀",
                "subtitle": "来尝尝美味润燥银耳汤",
                "priceInfo": 13.99,
                "scenePicUrl": "http://yanxuan.nosdn.127.net/7978bd7632df30b6e4843e2b4c703d84.jpg",
                "itemPicUrl": "http://yanxuan.nosdn.127.net/7978bd7632df30b6e4843e2b4c703d84.jpg",
                "topicTemplateId": 0,
                "topicTagId": 0,
                "commentSwitch": false
            },
            {
                "topicId": 20160323,
                "title": "别让自己的脚受委屈",
                "subtitle": "来自MUJI制造商的拖鞋",
                "priceInfo": 29,
                "scenePicUrl": "http://yanxuan.nosdn.127.net/d8bc4e2628c265316e035c77ae08d9c7.jpg",
                "itemPicUrl": "http://yanxuan.nosdn.127.net/d8bc4e2628c265316e035c77ae08d9c7.jpg",
                "topicTemplateId": 0,
                "topicTagId": 0,
                "commentSwitch": false
            },
            {
                "topicId": 20160322,
                "title": "走过30岁deadline",
                "subtitle": "治愈系美食推荐",
                "priceInfo": 23.9,
                "scenePicUrl": "http://yanxuan.nosdn.127.net/acb94ea1ef4e81be10bd63fccfb3b30f.jpg",
                "itemPicUrl": "http://yanxuan.nosdn.127.net/acb94ea1ef4e81be10bd63fccfb3b30f.jpg",
                "topicTemplateId": 0,
                "topicTagId": 0,
                "commentSwitch": false
            },
            {
                "topicId": 20160318,
                "title": "夏日运动袜系列",
                "subtitle": "来自新百伦等品牌制造商",
                "priceInfo": 29,
                "scenePicUrl": "http://yanxuan.nosdn.127.net/903ddeb224055b8c7e1aa8c9cdbd8452.jpg",
                "itemPicUrl": "http://yanxuan.nosdn.127.net/903ddeb224055b8c7e1aa8c9cdbd8452.jpg",
                "topicTemplateId": 0,
                "topicTagId": 0,
                "commentSwitch": false
            },
            {
                "topicId": 20160316,
                "title": "一念之「茶」 暖心暖胃",
                "subtitle": "严选质检，每一口都放心",
                "priceInfo": 20,
                "scenePicUrl": "http://yanxuan.nosdn.127.net/1a46a68539d819945447910690b36ef7.jpg",
                "itemPicUrl": "http://yanxuan.nosdn.127.net/1a46a68539d819945447910690b36ef7.jpg",
                "topicTemplateId": 0,
                "topicTagId": 0,
                "commentSwitch": false
            },
            {
                "topicId": 20160315,
                "title": "春风十里，不如睡你",
                "subtitle": "春天就是完美被窝里的你",
                "priceInfo": 99,
                "scenePicUrl": "http://yanxuan.nosdn.127.net/80c66262fd924b1db5af266d24a120bb.jpg",
                "itemPicUrl": "http://yanxuan.nosdn.127.net/80c66262fd924b1db5af266d24a120bb.jpg",
                "topicTemplateId": 0,
                "topicTagId": 0,
                "commentSwitch": false
            },
            {
                "topicId": 20160309,
                "title": "安睡枕选购攻略",
                "subtitle": "如枕云端好心情",
                "priceInfo": 59,
                "scenePicUrl": "http://yanxuan.nosdn.127.net/2b8fef8e50ac00ca8f432e69d1004829.jpg",
                "itemPicUrl": "http://yanxuan.nosdn.127.net/2b8fef8e50ac00ca8f432e69d1004829.jpg",
                "topicTemplateId": 0,
                "topicTagId": 0,
                "commentSwitch": false
            },
            {
                "topicId": 20160302,
                "title": "严选质检报告会",
                "subtitle": "我历经考验，给你更好的体验",
                "priceInfo": 13.99,
                "scenePicUrl": "http://yanxuan.nosdn.127.net/ce2b59e0643331cdcc0ec7f64e76b834.jpg",
                "itemPicUrl": "http://yanxuan.nosdn.127.net/ce2b59e0643331cdcc0ec7f64e76b834.jpg",
                "topicTemplateId": 0,
                "topicTagId": 0,
                "commentSwitch": false
            },
            {
                "topicId": 20160307,
                "title": "纯棉柔的呵护",
                "subtitle": "无荧光添加，医用级标准",
                "priceInfo": 15,
                "scenePicUrl": "http://yanxuan.nosdn.127.net/ecec766575f59d9db7f63636c1896681.jpg",
                "itemPicUrl": "http://yanxuan.nosdn.127.net/ecec766575f59d9db7f63636c1896681.jpg",
                "topicTemplateId": 0,
                "topicTagId": 0,
                "commentSwitch": false
            },
            {
                "topicId": 20160301,
                "title": "粉红少女心",
                "subtitle": "粉色的情怀，少一份娇艳，多一份温婉",
                "priceInfo": 59,
                "scenePicUrl": "http://yanxuan.nosdn.127.net/1b073b97bc3861b293896ecfa8011ace.jpg",
                "itemPicUrl": "http://yanxuan.nosdn.127.net/1b073b97bc3861b293896ecfa8011ace.jpg",
                "topicTemplateId": 0,
                "topicTagId": 0,
                "commentSwitch": false
            },
            {
                "topicId": 20160224,
                "title": "天然菌菇，健脾益胃",
                "subtitle": "源于核心原产地，鲜美纯正",
                "priceInfo": 18,
                "scenePicUrl": "http://yanxuan.nosdn.127.net/202a659ca3db9a84efb99be85f33746b.jpg",
                "itemPicUrl": "http://yanxuan.nosdn.127.net/202a659ca3db9a84efb99be85f33746b.jpg",
                "topicTemplateId": 0,
                "topicTagId": 0,
                "commentSwitch": false
            },
            {
                "topicId": 20160218,
                "title": "早春纳新品，挑世间好物",
                "subtitle": "换新专供，匠心本质",
                "priceInfo": 49,
                "scenePicUrl": "http://yanxuan.nosdn.127.net/e10e4a67ecfa430dbad87753bdddec9d.jpg",
                "itemPicUrl": "http://yanxuan.nosdn.127.net/e10e4a67ecfa430dbad87753bdddec9d.jpg",
                "topicTemplateId": 0,
                "topicTagId": 0,
                "commentSwitch": false
            },
            {
                "topicId": 20160217,
                "title": "国标KN95，五层防护口罩",
                "subtitle": "3D贴合，冷流呼吸阀设计",
                "priceInfo": 59,
                "scenePicUrl": "http://yanxuan.nosdn.127.net/ad9f5f36d28100dab5881059458b4b8e.jpg",
                "itemPicUrl": "http://yanxuan.nosdn.127.net/ad9f5f36d28100dab5881059458b4b8e.jpg",
                "topicTemplateId": 0,
                "topicTagId": 0,
                "commentSwitch": false
            },
            {
                "topicId": 20151204,
                "title": "鲜美海味，锁住东海的味道",
                "subtitle": "8分钟迅速入库，全程冷链",
                "priceInfo": 15,
                "scenePicUrl": "http://yanxuan.nosdn.127.net/49ab0e6db9140af9ded6122241ace47f.jpg",
                "itemPicUrl": "http://yanxuan.nosdn.127.net/49ab0e6db9140af9ded6122241ace47f.jpg",
                "topicTemplateId": 0,
                "topicTagId": 0,
                "commentSwitch": false
            },
            {
                "topicId": 20160114,
                "title": "专供日本皇室，非一般的柔软",
                "subtitle": "选自内野制造商，优质面巾首选",
                "priceInfo": 49,
                "scenePicUrl": "http://yanxuan.nosdn.127.net/2b9a77dcf2226cfdab17eb3cfc1efb64.jpg",
                "itemPicUrl": "http://yanxuan.nosdn.127.net/2b9a77dcf2226cfdab17eb3cfc1efb64.jpg",
                "topicTemplateId": 0,
                "topicTagId": 0,
                "commentSwitch": false
            },
            {
                "topicId": 20160112,
                "title": "厚密羊毛/长绒棉面料",
                "subtitle": "进口品质 比普通盖毯更暖",
                "priceInfo": 199,
                "scenePicUrl": "http://yanxuan.nosdn.127.net/5a615b93250c5be52582afd990daae1e.jpg",
                "itemPicUrl": "http://yanxuan.nosdn.127.net/5a615b93250c5be52582afd990daae1e.jpg",
                "topicTemplateId": 0,
                "topicTagId": 0,
                "commentSwitch": false
            },
            {
                "topicId": 20160113,
                "title": "古法曝晒，台南关庙面",
                "subtitle": "台湾直供，香滑劲道古早味",
                "priceInfo": 24.9,
                "scenePicUrl": "http://yanxuan.nosdn.127.net/fdd7bacc296b3f56da4c43713f20e952.jpg",
                "itemPicUrl": "http://yanxuan.nosdn.127.net/fdd7bacc296b3f56da4c43713f20e952.jpg",
                "topicTemplateId": 0,
                "topicTagId": 0,
                "commentSwitch": false
            },
            {
                "topicId": 20160108,
                "title": "绒大厚暖 白鹅绒冬被",
                "subtitle": "来自罗莱制造商的床品",
                "priceInfo": 1499,
                "scenePicUrl": "http://yanxuan.nosdn.127.net/992c6178df8edb02a79feb94a9185c2b.jpg",
                "itemPicUrl": "http://yanxuan.nosdn.127.net/992c6178df8edb02a79feb94a9185c2b.jpg",
                "topicTemplateId": 0,
                "topicTagId": 0,
                "commentSwitch": false
            }
        ]
    }
}